<svg xmlns="http://www.w3.org/2000/svg" xmlns:xlink="http://www.w3.org/1999/xlink" width="35.977" height="48" viewBox="0 0 35.977 48">
  <defs>
    <linearGradient id="linear-gradient" x1="0.956" y1="0.5" x2="0.02" y2="0.5" gradientUnits="objectBoundingBox">
      <stop offset="0" stop-color="#c0242b"/>
      <stop offset="0.972" stop-color="#850303"/>
    </linearGradient>
  </defs>
  <g id="AHA_Full" transform="translate(-6.496 -3.5)">
    <g id="icon" transform="translate(6.496 3.5)">
      <g id="Group-3" transform="translate(0 16.295)">
        <path id="Fill-1" d="M30.515,1.388A9.45,9.45,0,0,0,18.888,4.433c3.79-.325,6.9.6,7.03,1.612l-.366,3.476-.028,0a.937.937,0,0,0,0-.207C25.349,7.977,22.2,7.283,18.5,7.769s-6.562,1.967-6.385,3.309a.917.917,0,0,0,.055.2l-.067.008L10.886,8.018c-.134-1.01,2.619-2.7,6.355-3.368A9.45,9.45,0,0,0,5.462,1.388C.423,3.716-1.988,9.674,1.99,16.7c2.827,4.993,7.259,8.763,16,15.518q1.029-.8,1.977-1.535a134.982,134.982,0,0,0-4.647-19.267h0c-.1-.72,1.439-1.515,3.428-1.777s3.677.112,3.772.832a109,109,0,0,0,.231,18.009C28.438,23.9,31.727,20.691,33.986,16.7c3.978-7.026,1.568-12.984-3.471-15.312" transform="translate(0 -0.513)" fill="#c0242b" fill-rule="evenodd"/>
      </g>
      <path id="Fill-4" d="M118,230h0" transform="translate(-95.248 -185.652)" fill="#c9242c" fill-rule="evenodd"/>
      <path id="Fill-6" d="M79.172,10.543a5.025,5.025,0,0,0-2.178,5.407c2.088-3.068,8.44-.3,10.553-7.341a6.323,6.323,0,0,1-4.174,1.344C86.834,8.527,88.815,3.462,85.716,0c.913,4.082-4.307,4.436-8.405,5.2-7.7,1.442-8.953,8.535-5.461,12.154-.4-4.292,3.035-6.852,7.322-6.81" transform="translate(-56.503)" fill="#c0242b" fill-rule="evenodd"/>
      <path id="Fill-7" d="M63.191,105.155c-4.152.547-7.33,2.421-7.186,3.508l1.216,3.278.067-.008a.922.922,0,0,1-.055-.2c-.177-1.345,2.683-2.832,6.387-3.319s6.851.208,7.027,1.554a.941.941,0,0,1,0,.207l.028,0,.366-3.487c-.143-1.087-3.7-2.075-7.849-1.529" transform="translate(-45.202 -84.755)" fill="#fffffe" fill-rule="evenodd"/>
      <path id="Fill-8" d="M86.52,151a108.612,108.612,0,0,1-.233-18.08c-.1-.723-1.8-1.1-3.815-.835s-3.564,1.06-3.467,1.783h0a134.689,134.689,0,0,1,4.7,19.342q1.5-1.162,2.815-2.212" transform="translate(-63.768 -106.548)" fill="#fffffe" fill-rule="evenodd"/>
      <g id="Group-11" transform="translate(22.487 21.774)">
        <path id="Fill-9" d="M.869,23.63v-.013Q.72,21.75.625,20.058q.1,1.7.244,3.572c4.656-3.768,7.7-6.615,9.888-9.727C8.569,17.015,5.526,19.862.869,23.63m0,0h0M.625,20.057s0-.01,0-.014,0,.009,0,.014m0-.015s0-.006,0-.009,0,.006,0,.009M4.031,1.115a.6.6,0,0,0-.059-.19.6.6,0,0,1,.059.19" transform="translate(-0.624 -0.925)" fill="none" fill-rule="evenodd"/>
      </g>
      <g id="shadow" transform="translate(22.258 21.774)">
        <path id="Fill-12" d="M.91,23.63Q.76,21.756.665,20.058h0c0-.005,0-.009,0-.014h0s0-.006,0-.009A115.624,115.624,0,0,1,.575,6.963C2.391,6.329,3.6,5.452,3.68,4.607l.028,0,.365-3.488a.6.6,0,0,0-.06-.19l8.931,9.236a17.953,17.953,0,0,1-.818,1.647c-.405.719-.843,1.413-1.322,2.094C8.615,17.015,5.569,19.862.91,23.63" transform="translate(-0.435 -0.925)" fill-rule="evenodd" fill="url(#linear-gradient)"/>
      </g>
      <g id="Group-17" transform="translate(22.662 44.38)">
        <path id="Fill-15" d="M.53.168h0" transform="translate(-0.53 -0.168)" fill="none" fill-rule="evenodd"/>
      </g>
      <g id="Group-20" transform="translate(25.902 21.787)">
        <path id="Fill-18" d="M.4,1.2A.61.61,0,0,0,.335,1l0,0A.621.621,0,0,1,.4,1.2" transform="translate(-0.335 -0.995)" fill="none" fill-rule="evenodd"/>
      </g>
      <g id="Group-23" transform="translate(22.66 44.366)">
        <path id="Fill-21" d="M.524.111v0" transform="translate(-0.522 -0.097)" fill="none" fill-rule="evenodd"/>
      </g>
    </g>
  </g>
</svg>
